<?xml version="1.0" encoding="windows-1252" standalone="no"?>
<!DOCTYPE log SYSTEM "logger.dtd">
<log>
<record>
  <date>2022-09-27T05:46:40.605009100Z</date>
  <millis>1664257600605</millis>
  <nanos>9100</nanos>
  <sequence>0</sequence>
  <logger>global</logger>
  <level>SEVERE</level>
  <class>com.gl.main.App</class>
  <method>main</method>
  <thread>1</thread>
  <message>severe message</message>
</record>
<record>
  <date>2022-09-27T05:46:40.677032700Z</date>
  <millis>1664257600677</millis>
  <nanos>32700</nanos>
  <sequence>1</sequence>
  <logger>global</logger>
  <level>WARNING</level>
  <class>com.gl.main.App</class>
  <method>main</method>
  <thread>1</thread>
  <message>warning message</message>
</record>
<record>
  <date>2022-09-27T05:46:40.680917300Z</date>
  <millis>1664257600680</millis>
  <nanos>917300</nanos>
  <sequence>2</sequence>
  <logger>global</logger>
  <level>INFO</level>
  <class>com.gl.main.App</class>
  <method>main</method>
  <thread>1</thread>
  <message>info message</message>
</record>
