<?xml version="1.0" encoding="windows-1252" standalone="no"?>
<!DOCTYPE log SYSTEM "logger.dtd">
<log>
<record>
  <date>2022-09-27T06:10:04.780651400Z</date>
  <millis>1664259004780</millis>
  <nanos>651400</nanos>
  <sequence>0</sequence>
  <logger>global</logger>
  <level>SEVERE</level>
  <class>com.gl.main.App</class>
  <method>main</method>
  <thread>1</thread>
  <message>severe message</message>
</record>
<record>
  <date>2022-09-27T06:10:04.847762800Z</date>
  <millis>1664259004847</millis>
  <nanos>762800</nanos>
  <sequence>1</sequence>
  <logger>global</logger>
  <level>WARNING</level>
  <class>com.gl.main.App</class>
  <method>main</method>
  <thread>1</thread>
  <message>warning message</message>
</record>
<record>
  <date>2022-09-27T06:10:04.851764300Z</date>
  <millis>1664259004851</millis>
  <nanos>764300</nanos>
  <sequence>2</sequence>
  <logger>global</logger>
  <level>INFO</level>
  <class>com.gl.main.App</class>
  <method>main</method>
  <thread>1</thread>
  <message>info message</message>
</record>
