<?xml version="1.0" encoding="windows-1252" standalone="no"?>
<!DOCTYPE log SYSTEM "logger.dtd">
<log>
<record>
  <date>2022-09-27T06:16:08.247791900Z</date>
  <millis>1664259368247</millis>
  <nanos>791900</nanos>
  <sequence>0</sequence>
  <logger>global</logger>
  <level>SEVERE</level>
  <class>com.gl.main.App</class>
  <method>main</method>
  <thread>1</thread>
  <message>severe message</message>
</record>
<record>
  <date>2022-09-27T06:16:08.313805800Z</date>
  <millis>1664259368313</millis>
  <nanos>805800</nanos>
  <sequence>1</sequence>
  <logger>global</logger>
  <level>WARNING</level>
  <class>com.gl.main.App</class>
  <method>main</method>
  <thread>1</thread>
  <message>warning message</message>
</record>
<record>
  <date>2022-09-27T06:16:08.317806300Z</date>
  <millis>1664259368317</millis>
  <nanos>806300</nanos>
  <sequence>2</sequence>
  <logger>global</logger>
  <level>INFO</level>
  <class>com.gl.main.App</class>
  <method>main</method>
  <thread>1</thread>
  <message>info message</message>
</record>
