<?xml version="1.0" encoding="windows-1252" standalone="no"?>
<!DOCTYPE log SYSTEM "logger.dtd">
<log>
<record>
  <date>2022-09-28T07:01:27.569279500Z</date>
  <millis>1664348487569</millis>
  <nanos>279500</nanos>
  <sequence>0</sequence>
  <logger>global</logger>
  <level>SEVERE</level>
  <class>com.gl.main.App</class>
  <method>main</method>
  <thread>1</thread>
  <message>severe message</message>
</record>
<record>
  <date>2022-09-28T07:01:27.634293800Z</date>
  <millis>1664348487634</millis>
  <nanos>293800</nanos>
  <sequence>1</sequence>
  <logger>global</logger>
  <level>WARNING</level>
  <class>com.gl.main.App</class>
  <method>main</method>
  <thread>1</thread>
  <message>warning message</message>
</record>
<record>
  <date>2022-09-28T07:01:27.642747800Z</date>
  <millis>1664348487642</millis>
  <nanos>747800</nanos>
  <sequence>2</sequence>
  <logger>global</logger>
  <level>INFO</level>
  <class>com.gl.main.App</class>
  <method>main</method>
  <thread>1</thread>
  <message>info message</message>
</record>
</log>
